<?xml version="1.0" encoding="UTF-8" standalone="no"?>
<!-- Svg Vector Icons : http://www.onlinewebfonts.com/icon -->

<svg
   version="1.1"
   x="0px"
   y="0px"
   viewBox="0 0 1000 1000"
   enable-background="new 0 0 1000 1000"
   xml:space="preserve"
   id="svg14"
   sodipodi:docname="logo.svg"
   inkscape:export-filename="067c96409418327d88eabab242f8fbe0.png"
   inkscape:export-xdpi="24.576"
   inkscape:export-ydpi="24.576"
   inkscape:version="1.2.2 (b0a8486541, 2022-12-01)"
   xmlns:inkscape="http://www.inkscape.org/namespaces/inkscape"
   xmlns:sodipodi="http://sodipodi.sourceforge.net/DTD/sodipodi-0.dtd"
   xmlns="http://www.w3.org/2000/svg"
   xmlns:svg="http://www.w3.org/2000/svg"><defs
   id="defs18" /><sodipodi:namedview
   id="namedview16"
   pagecolor="#ffffff"
   bordercolor="#666666"
   borderopacity="1.0"
   inkscape:showpageshadow="2"
   inkscape:pageopacity="0.0"
   inkscape:pagecheckerboard="0"
   inkscape:deskcolor="#d1d1d1"
   showgrid="false"
   inkscape:zoom="0.4175"
   inkscape:cx="809.58084"
   inkscape:cy="645.50898"
   inkscape:window-width="1920"
   inkscape:window-height="1020"
   inkscape:window-x="0"
   inkscape:window-y="0"
   inkscape:window-maximized="1"
   inkscape:current-layer="svg14" />
<g
   id="g12"><g
     transform="translate(0.000000,511.000000) scale(0.100000,-0.100000)"
     id="g10"><path
       d="M7004.8,3736c-69.6-69.6-65.5-145.3,20.5-272.1c40.9-57.3,67.5-106.4,61.4-106.4c-6.1,0-100.3,59.3-210.7,133c-126.9,83.9-218.9,133-255.8,133c-71.6,0-157.6-83.9-157.6-153.5c0-81.8,30.7-120.7,145.3-196.4l106.4-67.5l-69.6-24.6c-218.9-73.6-484.9-247.6-673.2-435.8c-278.3-280.3-442-562.7-583.1-1021c-6.1-16.4-47.1,4.1-116.6,57.3c-204.6,155.5-529.9,294.6-787.7,337.6c-83.9,12.3-88,18.4-223,245.5c-135,227.1-184.1,276.2-276.2,276.2c-59.3,0-141.2-90-141.2-157.5c0-30.7,32.7-110.5,71.6-176c38.9-65.5,71.6-122.8,71.6-126.9c0-4.1-116.6,43-257.8,104.3c-141.2,61.4-276.2,110.5-302.8,110.5c-53.2,0-126.9-61.4-145.3-122.8c-24.6-77.7,28.6-163.7,126.9-206.7l90-38.9l-171.9-88c-259.9-135.1-538.1-368.3-662.9-560.6c-30.7-47.1-32.7-47.1-521.7-47.1h-489l-49.1-51.2c-32.7-30.7-51.2-71.6-51.2-114.6c0-59.3,43-110.5,343.7-415.4l341.7-349.9L2219,212.6c-14.3-139.1-26.6-190.3-47.1-190.3c-16.4,0-51.2-22.5-77.7-51.2c-49.1-47.1-51.2-57.3-51.2-364.2c0-173.9,10.2-411.3,20.5-525.8c12.3-114.6,18.4-212.8,12.3-218.9c-4.1-6.1-59.3,4.1-120.7,22.5c-108.5,32.7-112.5,34.8-261.9,261.9c-221,341.7-235.3,347.8-468.5,231.2c-77.7-38.9-151.4-71.6-161.6-71.6s-61.4,104.3-114.6,231.2C819.5-151.6,733.6-82,604.7-182.3C545.4-229.3,357.1-599.7,273.2-837c-198.5-556.5-229.2-1201-77.7-1688c159.6-513.6,452.2-840.9,875.7-980.1c474.7-153.4,1098.7-16.4,1604.1,351.9c71.6,53.2,145.3,108.4,165.7,122.8c34.8,24.6,57.3,12.3,218.9-118.7c198.5-161.6,503.3-323.3,722.3-380.6c96.2-26.6,208.7-36.8,399-36.8c245.5,0,280.3,6.2,460.4,67.5c544.3,186.2,947.3,564.7,1252.2,1178.5c51.2,102.3,108.4,231.2,128.9,286.5c20.5,57.3,40.9,106.4,45,110.5c2,4.1,43-26.6,88-67.5c176-159.6,484.9-323.3,736.6-392.9c96.2-26.6,204.6-36.8,399-36.8c245.5,0,280.3,6.1,460.4,67.5c638.4,216.9,1111,724.3,1397.5,1495.7c161.6,437.9,237.4,873.7,253.7,1477.3c10.2,372.4,8.2,429.7-22.5,474.7c-18.4,28.7-55.2,57.3-81.8,65.5c-43,10.2-49.1,26.6-65.5,198.5l-18.4,188.2l341.7,349.9c300.8,304.9,343.7,356,343.7,415.3c0,43-18.4,83.9-51.2,114.6l-49.1,51.2h-493.1c-270.1,0-491.1,8.2-491.1,16.4c0,34.8-278.3,319.2-407.2,417.4c-73.7,55.2-216.9,141.2-319.2,190.3c-161.7,77.7-253.7,108.4-484.9,161.6c-45,10.2-94.1,67.5-218.9,255.8c-90,133-178,247.6-196.4,255.8C7121.4,3799.4,7053.9,3787.1,7004.8,3736z M7610.4,2940c304.9-79.8,552.4-221,771.4-441.9c331.5-331.5,505.4-734.6,529.9-1231.7l12.3-239.4l-171.9-83.9l-173.9-85.9l-384.7,155.5c-210.7,85.9-405.1,155.5-431.7,155.5c-24.6,0-171.9-96.2-345.8-227.1l-302.8-227.1l-218.9,145.3c-120.7,79.8-239.4,145.3-263.9,145.3c-24.6,0-173.9-63.4-329.4-143.2L6014.5,720l-24.6,75.7c-36.8,116.6-178,392.8-257.8,503.3l-73.7,102.3l24.5,135.1c55.2,304.9,198.5,615.9,392.9,853.2c190.3,233.2,538.1,454.2,851.2,540.2C7101,2974.8,7450.8,2980.9,7610.4,2940z M9224.8,2037.7c-67.5-69.6-114.6-102.3-120.7-88c-4.1,14.3-24.5,65.5-45,114.6l-36.8,85.9h157.5h155.5L9224.8,2037.7z M4522.9,1784c470.6-120.7,912.6-501.3,1115.1-961.7c106.4-239.4,182.1-675.2,157.5-904.4l-12.3-116.6l-169.8-124.8l-167.8-124.8l-466.5,157.5l-466.5,155.5L4187.3-213L3862-292.8l-315.1,157.6c-176,85.9-335.6,157.5-360.1,157.5c-73.7,0-112.5-34.8-235.3-223c-65.5-102.3-126.8-186.2-133-186.2c-6.1,0-75.7,47.1-151.4,104.3L2528-176.1l12.3,268c6.1,173.9,26.6,325.3,53.2,431.7c161.6,611.8,617.9,1090.6,1199,1256.3C3988.9,1835.1,4314.2,1837.2,4522.9,1784z M2393,918.5c-20.5-49.1-40.9-100.3-45-114.6c-6.1-14.3-53.2,18.4-120.7,88l-110.5,112.5h155.5h157.5L2393,918.5z M8273.4,628c155.5-63.4,300.8-114.6,321.2-114.6s139.1,51.2,266,114.6l227.1,114.6l-12.3-294.6c-45-941.2-313-1675.7-777.5-2117.7c-613.8-581.1-1458.8-574.9-2033.8,18.4l-88,90l38.9,202.6c55.2,282.4,83.9,620,83.9,978c0,294.6-2,304.9-51.2,351.9c-26.6,28.6-61.4,51.2-77.7,51.2c-22.5,0-32.8,45-45,186.2c-6.1,102.3-10.2,188.2-6.1,192.3c4.1,2,116.6,61.4,251.7,128.9l245.5,120.7l225.1-149.4c135-92.1,245.5-151.4,278.3-151.4c34.8,0,153.5,75.7,364.2,233.2l313,235.3l94.1-36.8C7944,758.9,8115.8,691.4,8273.4,628z M3546.9-503.5l276.2-137.1l311,75.7c171.9,43,331.5,75.7,354,75.7s251.7-69.6,507.4-155.5c292.6-98.2,482.9-151.4,513.6-143.2c24.6,6.2,110.5,59.3,188.2,118.7c77.7,57.3,171.9,128.9,210.7,157.5l67.5,51.2l-14.3-202.5c-67.5-1016.9-304.9-1679.8-755-2127.9c-540.2-538.1-1252.2-609.7-1841.5-186.2c-69.6,49.1-151.4,118.7-184.2,151.4l-59.3,63.4l108.4,118.7c122.8,135,425.6,583.1,442,654.7c18.4,71.6-8.2,145.3-65.5,184.2c-55.2,34.8-83.9,34.8-593.4-26.6l-102.3-12.3l-216.9,241.4c-116.6,135-225.1,261.9-237.3,286.4c-26.6,51.2-85.9,542.2-85.9,720.2v126.9l218.9-163.7c235.3-178,292.6-196.4,376.5-116.6c26.6,24.6,98.2,120.7,159.6,214.8c59.3,92.1,116.6,167.8,126.9,167.8C3262.5-366.4,3395.5-427.8,3546.9-503.5z M754.1-851.3c118.7-278.3,151.4-290.5,413.3-167.8c116.6,57.3,188.2,79.8,196.4,65.5c282.4-435.8,247.6-405.1,577-497.2c83.9-24.6,176-53.2,204.6-63.4c28.6-12.3,176-163.7,327.4-337.6c151.4-175.9,294.6-321.2,321.2-327.4c24.5-6.1,122.8-4.1,214.8,8.2c94.1,10.2,171.9,18.4,173.9,16.4c14.3-10.2-259.9-341.7-409.2-497.2c-202.6-210.7-413.3-364.2-636.3-468.5c-515.6-237.4-1090.6-149.4-1403.6,214.8c-98.2,112.5-229.2,372.4-276.2,544.2c-45,165.7-63.4,617.9-32.7,830.7c30.7,196.4,100.3,450.1,190.3,675.2c34.8,90,65.5,161.7,67.5,161.7C684.5-693.8,717.2-765.4,754.1-851.3z"
       id="path4" /><path
       d="M7986.9,2262.8c-55.2-53.2-63.4-104.4-28.7-180.1c24.6-53.2,96.2-96.2,163.7-96.2c63.4,0,141.2,90,141.2,163.7c0,38.9-18.4,81.8-51.2,112.5c-30.7,32.7-73.7,51.2-112.5,51.2C8060.6,2313.9,8017.6,2295.5,7986.9,2262.8z"
       id="path6" /><path
       d="M3240,1117c-32.7-30.7-51.2-73.7-51.2-112.5c0-73.7,77.7-163.7,141.2-163.7c102.3,0,186.2,83.9,186.2,186.2c0,63.4-90,141.2-163.7,141.2C3313.7,1168.1,3270.7,1149.7,3240,1117z"
       id="path8" /></g></g>
<path
   style="fill:#009ae5;fill-opacity:1;fill-rule:evenodd;stroke:#000000;stroke-width:34.491;stroke-linecap:square;stroke-linejoin:round"
   d="M 124.80151,830.94007 C 94.032735,822.66589 72.796199,804.0483 57.3703,771.82469 44.729584,745.41913 42.364795,730.73407 43.779134,687.42515 c 1.226568,-37.55913 5.181851,-56.24548 19.144447,-90.44608 l 5.633676,-13.79938 5.443399,13.13318 c 7.135663,17.21607 13.665495,25.24402 20.533167,25.24402 3.059858,0 13.329527,-3.3048 22.821487,-7.34399 9.49196,-4.03919 17.50627,-7.00326 17.80958,-6.58683 0.3033,0.41644 6.19706,9.02276 13.09724,19.12515 13.74721,20.12698 17.32041,22.50942 46.33574,30.89443 20.07365,5.801 18.69832,4.65154 66.43929,55.528 l 15.17126,16.16767 h 18.86629 c 22.59806,0 22.84251,-1.43111 -5.23179,30.6275 -52.54325,60.00016 -111.52368,85.36299 -165.04141,70.97125 z"
   id="path6512" /><path
   style="fill:#009ae5;fill-opacity:1;fill-rule:evenodd;stroke:#000000;stroke-width:34.491;stroke-linecap:square;stroke-linejoin:round"
   d="m 387.17352,830.93655 c -17.78043,-4.30419 -41.96437,-17.00395 -59.48965,-31.2399 l -13.63349,-11.07461 12.74829,-15.86791 c 20.27515,-25.23664 42.06361,-59.99059 42.06361,-67.09409 0,-3.5148 -1.78476,-8.93865 -3.96614,-12.053 -3.83931,-5.48139 -4.70092,-5.61484 -26.9461,-4.17359 -12.63899,0.81887 -28.3692,2.14542 -34.95603,2.94789 l -11.97605,1.45903 -19.3414,-22.36929 c -10.63777,-12.3031 -21.03471,-25.06389 -23.10431,-28.35731 -3.36095,-5.34839 -5.65701,-20.62851 -10.16762,-67.66467 -0.7264,-7.57485 -0.84176,-13.77245 -0.25635,-13.77245 0.58542,0 10.02597,6.44795 20.97901,14.32877 29.61506,21.30834 35.10786,19.97033 56.73506,-13.82029 9.44787,-14.76147 7.43575,-14.87328 41.8176,2.32378 l 23.54821,11.7783 34.08059,-7.69243 34.08059,-7.69243 46.5628,14.78313 c 25.60956,8.13072 49.336,14.772 52.72544,14.75841 3.728,-0.0149 13.91349,-5.70226 25.78201,-14.39599 10.79069,-7.90419 20.1733,-14.37125 20.85023,-14.37125 3.47061,0 -6.80481,78.0746 -14.40323,109.43825 -27.36398,112.94926 -109.0355,180.32484 -193.73307,159.82165 z"
   id="path6514" /><path
   style="fill:#009ae5;fill-opacity:1;fill-rule:evenodd;stroke:#000000;stroke-width:34.491;stroke-linecap:square;stroke-linejoin:round"
   d="m 706.58683,718.10687 c -24.76783,-4.14136 -60.53311,-23.38258 -78.882,-42.43739 l -8.22331,-8.53968 4.38421,-25.78047 c 2.81916,-16.57753 4.78776,-43.28186 5.5147,-74.80762 l 1.1305,-49.02716 -7.77886,-6.49409 c -7.07581,-5.90714 -7.88208,-7.97047 -8.9208,-22.82913 l -1.14193,-16.33504 23.03832,-11.37725 c 12.67108,-6.25748 24.16106,-11.37724 25.53328,-11.37724 1.37223,0 8.63343,4.15966 16.13599,9.2437 7.50257,5.08404 18.22749,11.57587 23.83316,14.42631 9.69157,4.92807 10.57383,4.98993 17.96407,1.25954 4.27457,-2.15769 19.67309,-12.80896 34.21894,-23.6695 l 26.44698,-19.74643 38.22368,15.17903 c 21.02301,8.34847 39.6063,15.20252 41.29617,15.23121 1.68987,0.0287 12.88448,-4.83105 24.87691,-10.79945 11.99241,-5.9684 22.29442,-10.36161 22.89336,-9.76268 2.14975,2.14975 -4.32481,69.25278 -9.03901,93.68115 -15.67684,81.23556 -52.90527,140.70605 -105.72244,168.88615 -24.44663,13.04328 -60.27773,19.34052 -85.78192,15.07604 z"
   id="path6516" /></svg>
